{"pageNo":"1","totalPages":2,"totalCount":"13","result":[{"id":"13","invdate":"2007-10-06","name":"Client 3","amount":"1000.00","tax":"0.00","total":"1000.00","note":null},{"id":"9","invdate":"2007-10-06","name":"Client 1","amount":"200.00","tax":"40.00","total":"240.00","note":null},{"id":"12","invdate":"2007-10-06","name":"Client 2","amount":"700.00","tax":"140.00","total":"840.00","note":null},{"id":"11","invdate":"2007-10-06","name":"Client 1","amount":"600.00","tax":"120.00","total":"720.00","note":null},{"id":"10","invdate":"2007-10-06","name":"Client 2","amount":"100.00","tax":"20.00","total":"120.00","note":null},{"id":"9","invdate":"2007-10-06","name":"Client 1","amount":"200.00","tax":"40.00","total":"240.00","note":null},{"id":"8","invdate":"2007-10-06","name":"Client 3","amount":"200.00","tax":"0.00","total":"200.00","note":null},{"id":"7","invdate":"2007-10-05","name":"Client 2","amount":"120.00","tax":"12.00","total":"134.00","note":null},{"id":"6","invdate":"2007-10-05","name":"Client 1","amount":"50.00","tax":"10.00","total":"60.00","note":""},{"id":"5","invdate":"2007-10-05","name":"Client 3","amount":"100.00","tax":"0.00","total":"100.00","note":"no tax at all"},{"id":"4","invdate":"2007-10-04","name":"Client 3","amount":"150.00","tax":"0.00","total":"150.00","note":"no tax"}]}